tests/input/nextAnd/nextAnd_t3_fd/fp_num_35.vcd
$date
	Fri Jul  2 17:41:16 2021
$end
$version
	ModelSim Version 2019.4
$end
$timescale
	1ps
$end

$scope module sim1 $end

$scope module p $end

$scope module core $end

$scope module master_interface $end
$var wire 1 ! wb_clk $end
$var wire 1 " wb_rst $end
$var wire 1 # wb_ack $end
$var wire 1 $ wb_err $end
$var wire 1 % wb_stall $end
$var reg 1 & wb_cyc $end
$var reg 1 ' wb_stb $end
$var wire 1 ( wb_dat_i [31] $end
$var wire 1 ) wb_dat_i [30] $end
$var wire 1 * wb_dat_i [29] $end
$var wire 1 + wb_dat_i [28] $end
$var wire 1 , wb_dat_i [27] $end
$var wire 1 - wb_dat_i [26] $end
$var wire 1 . wb_dat_i [25] $end
$var wire 1 / wb_dat_i [24] $end
$var wire 1 0 wb_dat_i [23] $end
$var wire 1 1 wb_dat_i [22] $end
$var wire 1 2 wb_dat_i [21] $end
$var wire 1 3 wb_dat_i [20] $end
$var wire 1 4 wb_dat_i [19] $end
$var wire 1 5 wb_dat_i [18] $end
$var wire 1 6 wb_dat_i [17] $end
$var wire 1 7 wb_dat_i [16] $end
$var wire 1 8 wb_dat_i [15] $end
$var wire 1 9 wb_dat_i [14] $end
$var wire 1 : wb_dat_i [13] $end
$var wire 1 ; wb_dat_i [12] $end
$var wire 1 < wb_dat_i [11] $end
$var wire 1 = wb_dat_i [10] $end
$var wire 1 > wb_dat_i [9] $end
$var wire 1 ? wb_dat_i [8] $end
$var wire 1 @ wb_dat_i [7] $end
$var wire 1 A wb_dat_i [6] $end
$var wire 1 B wb_dat_i [5] $end
$var wire 1 C wb_dat_i [4] $end
$var wire 1 D wb_dat_i [3] $end
$var wire 1 E wb_dat_i [2] $end
$var wire 1 F wb_dat_i [1] $end
$var wire 1 G wb_dat_i [0] $end
$var reg 1 H wb_we $end
$var reg 4 I wb_sel [3:0] $end
$var reg 32 J wb_adr [31:0] $end
$var reg 32 K wb_dat_o [31:0] $end
$var wire 1 L request $end
$var wire 1 M write $end
$var wire 1 N address [31] $end
$var wire 1 O address [30] $end
$var wire 1 P address [29] $end
$var wire 1 Q address [28] $end
$var wire 1 R address [27] $end
$var wire 1 S address [26] $end
$var wire 1 T address [25] $end
$var wire 1 U address [24] $end
$var wire 1 V address [23] $end
$var wire 1 W address [22] $end
$var wire 1 X address [21] $end
$var wire 1 Y address [20] $end
$var wire 1 Z address [19] $end
$var wire 1 [ address [18] $end
$var wire 1 \ address [17] $end
$var wire 1 ] address [16] $end
$var wire 1 ^ address [15] $end
$var wire 1 _ address [14] $end
$var wire 1 ` address [13] $end
$var wire 1 a address [12] $end
$var wire 1 b address [11] $end
$var wire 1 c address [10] $end
$var wire 1 d address [9] $end
$var wire 1 e address [8] $end
$var wire 1 f address [7] $end
$var wire 1 g address [6] $end
$var wire 1 h address [5] $end
$var wire 1 i address [4] $end
$var wire 1 j address [3] $end
$var wire 1 k address [2] $end
$var wire 1 l address [1] $end
$var wire 1 m address [0] $end
$var wire 1 n data_to_bus [31] $end
$var wire 1 o data_to_bus [30] $end
$var wire 1 p data_to_bus [29] $end
$var wire 1 q data_to_bus [28] $end
$var wire 1 r data_to_bus [27] $end
$var wire 1 s data_to_bus [26] $end
$var wire 1 t data_to_bus [25] $end
$var wire 1 u data_to_bus [24] $end
$var wire 1 v data_to_bus [23] $end
$var wire 1 w data_to_bus [22] $end
$var wire 1 x data_to_bus [21] $end
$var wire 1 y data_to_bus [20] $end
$var wire 1 z data_to_bus [19] $end
$var wire 1 { data_to_bus [18] $end
$var wire 1 | data_to_bus [17] $end
$var wire 1 } data_to_bus [16] $end
$var wire 1 ~ data_to_bus [15] $end
$var wire 1 !! data_to_bus [14] $end
$var wire 1 "! data_to_bus [13] $end
$var wire 1 #! data_to_bus [12] $end
$var wire 1 $! data_to_bus [11] $end
$var wire 1 %! data_to_bus [10] $end
$var wire 1 &! data_to_bus [9] $end
$var wire 1 '! data_to_bus [8] $end
$var wire 1 (! data_to_bus [7] $end
$var wire 1 )! data_to_bus [6] $end
$var wire 1 *! data_to_bus [5] $end
$var wire 1 +! data_to_bus [4] $end
$var wire 1 ,! data_to_bus [3] $end
$var wire 1 -! data_to_bus [2] $end
$var wire 1 .! data_to_bus [1] $end
$var wire 1 /! data_to_bus [0] $end
$var wire 1 0! byte_sel [3] $end
$var wire 1 1! byte_sel [2] $end
$var wire 1 2! byte_sel [1] $end
$var wire 1 3! byte_sel [0] $end
$var reg 1 4! reset $end
$var reg 1 5! busy $end
$var reg 32 6! data_from_bus [31:0] $end
$var reg 1 7! ready_from_bus $end
$var reg 1 8! error_from_bus $end
$var reg 1 9! mock $end
$var reg 2 :! state [1:0] $end
$var reg 2 ;! next_state [1:0] $end
$upscope $end
$upscope $end
$upscope $end
$upscope $end
$enddefinitions $end
#0
$dumpvars
0&
0'
xH
bx I
bx J
bx K
14!
15!
b0 6!
07!
08!
x9!
b0 :!
b1 ;!
xG
xF
xE
xD
xC
xB
xA
x@
x?
x>
x=
x<
x;
x:
x9
x8
x7
x6
x5
x4
x3
x2
x1
x0
x/
x.
x-
x,
x+
x*
x)
x(
x%
x$
x#
1"
0!
03!
02!
01!
00!
0/!
0.!
0-!
0,!
0+!
0*!
0)!
0(!
0'!
0&!
0%!
0$!
0#!
0"!
0!!
0~
0}
0|
0{
0z
0y
0x
0w
0v
0u
0t
0s
0r
0q
0p
0o
0n
0m
0l
0k
0j
0i
0h
0g
0f
0e
0d
0c
0b
0a
0`
0_
0^
0]
0\
0[
0Z
0Y
0X
0W
0V
0U
0T
0S
0R
0Q
0P
0O
0N
0M
0L
$end
#5000
1!
b0 K
b100000 J
b0 I
0H
0G
0F
0E
0D
0C
0B
0A
0@
0?
0>
0=
0<
0;
0:
09
08
07
06
05
04
03
02
01
00
0/
0.
0-
0,
0+
0*
0)
0(
0%
0$
0#
#10000
0!
#15000
1!
#20000
0!
0"
04!
#25000
1!
b1 :!
05!
#30000
0!
#35000
1!
b0 J
1M
13!
1/!
1h
1L
b10 ;!
#40000
0!
#45000
1!
b10 :!
b1 K
b100000 J
b1 I
1H
15!
1&
1'
#50000
0!
#55000
1!
1%
1G
1F
1E
1D
1C
1B
1A
1@
1?
1>
1=
1<
1;
1:
19
18
17
16
15
14
13
12
11
10
1/
1.
1-
1,
1+
1*
1)
1(
b11111111111111111111111111111111 6!
b11 ;!
1#
0%
b1 ;!
17!
0M
03!
0L
#60000
0!
#65000
1!
b1 :!
05!
07!
0&
0'
0#
0G
0F
0E
0D
0C
0B
0A
0@
0?
0>
0=
0<
0;
0:
09
08
07
06
05
04
03
02
01
00
0/
0.
0-
0,
0+
0*
0)
0(
b0 6!
#70000
0!
#75000
1!
b0 I
0H
13!
12!
11!
10!
1.!
1-!
1*!
1)!
1'!
1%!
1!!
1}
1|
1x
1u
1q
0h
1M
1L
b10 ;!
#80000
0!
#85000
1!
b10 :!
b10001001000110100010101100111 K
b0 J
b1111 I
1H
15!
1&
1'
#90000
0!
#95000
1!
1%
1G
1F
1E
1D
1C
1B
1A
1@
1?
1>
1=
1<
1;
1:
19
18
17
16
15
14
13
12
11
10
1/
1.
1-
1,
1+
1*
1)
1(
b11111111111111111111111111111111 6!
b11 ;!
1#
0%
b1 ;!
17!
0M
03!
02!
01!
00!
0L
#100000
0!
#105000
1!
b1 :!
05!
07!
0&
0'
0#
0G
0F
0E
0D
0C
0B
0A
0@
0?
0>
0=
0<
0;
0:
09
08
07
06
05
04
03
02
01
00
0/
0.
0-
0,
0+
0*
0)
0(
b0 6!
#110000
0!
#115000
1!
b0 I
0H
13!
12!
11!
10!
1,!
1(!
1$!
1~
1z
1v
1r
0q
1n
1k
1M
1L
b10 ;!
#120000
0!
#125000
1!
b10 :!
b10001001101010111100110111101111 K
b100 J
b1111 I
1H
15!
1&
1'
#130000
0!
#135000
1!
1%
1G
1F
1E
1D
1C
1B
1A
1@
1?
1>
1=
1<
1;
1:
19
18
17
16
15
14
13
12
11
10
1/
1.
1-
1,
1+
1*
1)
1(
b11111111111111111111111111111111 6!
b11 ;!
1#
0%
b1 ;!
17!
0M
03!
02!
01!
00!
0L
#140000
0!
#145000
1!
b1 :!
05!
07!
0&
0'
0#
0G
0F
0E
0D
0C
0B
0A
0@
0?
0>
0=
0<
0;
0:
09
08
07
06
05
04
03
02
01
00
0/
0.
0-
0,
0+
0*
0)
0(
b0 6!
#150000
0!
#155000
1!
b0 I
0H
13!
12!
11!
10!
0,!
0*!
0)!
0%!
1"!
0!!
0x
1w
1s
1p
1o
0k
1j
1M
1L
b10 ;!
#160000
0!
#165000
1!
b10 :!
b11101101110010111010100110000111 K
b1000 J
b1111 I
1H
15!
1&
1'
#170000
0!
#175000
1!
1%
1G
1F
1E
1D
1C
1B
1A
1@
1?
1>
1=
1<
1;
1:
19
18
17
16
15
14
13
12
11
10
1/
1.
1-
1,
1+
1*
1)
1(
b11111111111111111111111111111111 6!
b11 ;!
1#
0%
b1 ;!
17!
0M
03!
02!
01!
00!
0L
#180000
0!
#185000
1!
b1 :!
05!
07!
0&
0'
0#
0G
0F
0E
0D
0C
0B
0A
0@
0?
0>
0=
0<
0;
0:
09
08
07
06
05
04
03
02
01
00
0/
0.
0-
0,
0+
0*
0)
0(
b0 6!
#190000
0!
#195000
1!
b0 I
0H
13!
12!
11!
10!
0/!
0.!
0-!
1+!
0(!
0'!
1&!
0$!
1#!
0~
0}
0|
1{
0z
1y
0v
0u
1t
0r
1q
0n
1k
1M
1L
b10 ;!
#200000
0!
#205000
1!
b10 :!
b1110110010101000011001000010000 K
b1100 J
b1111 I
1H
15!
1&
1'
#210000
0!
#215000
1!
1%
1G
1F
1E
1D
1C
1B
1A
1@
1?
1>
1=
1<
1;
1:
19
18
17
16
15
14
13
12
11
10
1/
1.
1-
1,
1+
1*
1)
1(
b11111111111111111111111111111111 6!
b11 ;!
1#
0%
b1 ;!
17!
0M
03!
02!
01!
00!
0L
#220000
0!
#225000
1!
b1 :!
05!
07!
0&
0'
0#
0G
0F
0E
0D
0C
0B
0A
0@
0?
0>
0=
0<
0;
0:
09
08
07
06
05
04
03
02
01
00
0/
0.
0-
0,
0+
0*
0)
0(
b0 6!
#230000
0!
#235000
1!
b0 I
0H
10!
1/!
0+!
0&!
0#!
0"!
0{
0y
0w
0t
0s
0q
0p
0o
0k
0j
1h
1M
1L
b10 ;!
#240000
0!
#245000
1!
b10 :!
b1 K
b100000 J
b1000 I
1H
15!
1&
1'
#250000
0!
#255000
1!
1%
1G
1F
1E
1D
1C
1B
1A
1@
1?
1>
1=
1<
1;
1:
19
18
17
16
15
14
13
12
11
10
1/
1.
1-
1,
1+
1*
1)
1(
b11111111111111111111111111111111 6!
b11 ;!
1#
0%
b1 ;!
17!
0M
00!
0L
#260000
0!
#265000
1!
b1 :!
05!
07!
0&
0'
0#
0G
0F
0E
0D
0C
0B
0A
0@
0?
0>
0=
0<
0;
0:
09
08
07
06
05
04
03
02
01
00
0/
0.
0-
0,
0+
0*
0)
0(
b0 6!
#270000
0!
#275000
1!
b0 I
0H
13!
1k
1i
1L
b10 ;!
#280000
0!
#285000
1!
b10 :!
b110100 J
b1 I
15!
1&
1'
#290000
0!
#295000
1!
1%
1G
1F
1E
1D
1C
1B
1A
1@
1?
1>
1=
1<
1;
1:
19
18
17
16
15
14
13
12
11
10
1/
1.
1-
1,
1+
1*
1)
1(
b11111111111111111111111111111111 6!
b11 ;!
1#
0%
0F
0E
0D
0C
0B
0A
0@
0?
0>
0=
0<
0;
0:
09
08
07
06
05
04
03
02
01
00
0/
0.
0-
0,
0+
0*
0)
0(
b1 ;!
17!
b1 6!
#300000
0!
#305000
1!
b1 :!
03!
0L
05!
07!
0&
0'
0#
0G
b0 6!
#310000
0!
#315000
1!
b0 I
#320000
0!
#325000
1!
13!
1L
b10 ;!
#330000
0!
#335000
1!
b10 :!
b1 I
15!
1&
1'
#340000
0!
#345000
1!
1%
1G
1F
1E
1D
1C
1B
1A
1@
1?
1>
1=
1<
1;
1:
19
18
17
16
15
14
13
12
11
10
1/
1.
1-
1,
1+
1*
1)
1(
b11111111111111111111111111111111 6!
b11 ;!
1#
0%
0G
0F
0E
0D
0C
0B
0A
0@
0?
0>
0=
0<
0;
0:
09
08
07
06
05
04
03
02
01
00
0/
0.
0-
0,
0+
0*
0)
0(
b1 ;!
17!
b0 6!
#350000
0!
#355000
1!
b1 :!
03!
0L
05!
07!
0&
0'
0#
#360000
0!
#365000
1!
b0 I
#370000
0!
#375000
1!
13!
12!
11!
10!
0/!
1)!
1!!
1w
1o
0k
0h
1M
1L
b10 ;!
#380000
0!
#385000
1!
b10 :!
b1000000010000000100000001000000 K
b10000 J
b1111 I
1H
15!
1&
1'
#390000
0!
#395000
1!
1%
1G
1F
1E
1D
1C
1B
1A
1@
1?
1>
1=
1<
1;
1:
19
18
17
16
15
14
13
12
11
10
1/
1.
1-
1,
1+
1*
1)
1(
b11111111111111111111111111111111 6!
b11 ;!
1#
0%
b1 ;!
17!
0M
03!
02!
01!
00!
0L
#400000
0!
#405000
1!
b1 :!
05!
07!
0&
0'
0#
0G
0F
0E
0D
0C
0B
0A
0@
0?
0>
0=
0<
0;
0:
09
08
07
06
05
04
03
02
01
00
0/
0.
0-
0,
0+
0*
0)
0(
b0 6!
#410000
0!
#415000
1!
b0 I
0H
13!
12!
11!
10!
1+!
1*!
0)!
1#!
1"!
0!!
1y
1x
0w
1q
1p
0o
1k
1M
1L
b10 ;!
#420000
0!
#425000
1!
b10 :!
b110000001100000011000000110000 K
b10100 J
b1111 I
1H
15!
1&
1'
#430000
0!
#435000
1!
1%
1G
1F
1E
1D
1C
1B
1A
1@
1?
1>
1=
1<
1;
1:
19
18
17
16
15
14
13
12
11
10
1/
1.
1-
1,
1+
1*
1)
1(
b11111111111111111111111111111111 6!
b11 ;!
1#
0%
b1 ;!
17!
0M
03!
02!
01!
00!
0L
#440000
0!
#445000
1!
b1 :!
05!
07!
0&
0'
0#
0G
0F
0E
0D
0C
0B
0A
0@
0?
0>
0=
0<
0;
0:
09
08
07
06
05
04
03
02
01
00
0/
0.
0-
0,
0+
0*
0)
0(
b0 6!
#450000
0!
#455000
1!
b0 I
0H
13!
12!
11!
10!
0+!
0#!
0y
0q
0k
1j
1M
1L
b10 ;!
#460000
0!
#465000
1!
b10 :!
b100000001000000010000000100000 K
b11000 J
b1111 I
1H
15!
1&
1'
#470000
0!
#475000
1!
1%
1G
1F
1E
1D
1C
1B
1A
1@
1?
1>
1=
1<
1;
1:
19
18
17
16
15
14
13
12
11
10
1/
1.
1-
1,
1+
1*
1)
1(
b11111111111111111111111111111111 6!
b11 ;!
1#
0%
b1 ;!
17!
0M
03!
02!
01!
00!
0L
#480000
0!
#485000
1!
b1 :!
05!
07!
0&
0'
0#
0G
0F
0E
0D
0C
0B
0A
0@
0?
0>
0=
0<
0;
0:
09
08
07
06
05
04
03
02
01
00
0/
0.
0-
0,
0+
0*
0)
0(
b0 6!
#490000
0!
#495000
1!
b0 I
0H
13!
12!
11!
10!
1+!
0*!
1#!
0"!
1y
0x
1q
0p
1k
1M
1L
b10 ;!
#500000
0!
#505000
1!
b10 :!
b10000000100000001000000010000 K
b11100 J
b1111 I
1H
15!
1&
1'
#510000
0!
#515000
1!
1%
1G
1F
1E
1D
1C
1B
1A
1@
1?
1>
1=
1<
1;
1:
19
18
17
16
15
14
13
12
11
10
1/
1.
1-
1,
1+
1*
1)
1(
b11111111111111111111111111111111 6!
b11 ;!
1#
0%
b1 ;!
17!
0M
03!
02!
01!
00!
0L
#520000
0!
#525000
1!
b1 :!
05!
07!
0&
0'
0#
0G
0F
0E
0D
0C
0B
0A
0@
0?
0>
0=
0<
0;
0:
09
08
07
06
05
04
03
02
01
00
0/
0.
0-
0,
0+
0*
0)
0(
b0 6!
#530000
0!
#535000
1!
b0 I
0H
11!
1/!
0+!
0#!
0y
0q
0k
0j
0i
1h
1M
1L
b10 ;!
#540000
0!
#545000
1!
b10 :!
b1 K
b100000 J
b100 I
1H
15!
1&
1'
#550000
0!
#555000
1!
1%
1G
1F
1E
1D
1C
1B
1A
1@
1?
1>
1=
1<
1;
1:
19
18
17
16
15
14
13
12
11
10
1/
1.
1-
1,
1+
1*
1)
1(
b11111111111111111111111111111111 6!
b11 ;!
1#
0%
b1 ;!
17!
0M
01!
0L
#560000
0!
#565000
1!
b1 :!
05!
07!
0&
0'
0#
0G
0F
0E
0D
0C
0B
0A
0@
0?
0>
0=
0<
0;
0:
09
08
07
06
05
04
03
02
01
00
0/
0.
0-
0,
0+
0*
0)
0(
b0 6!
#570000
0!
#575000
1!
b0 I
0H
13!
1k
1i
1L
b10 ;!
#580000
0!
#585000
1!
b10 :!
b110100 J
b1 I
15!
1&
1'
#590000
0!
#595000
1!
1%
1G
1F
1E
1D
1C
1B
1A
1@
1?
1>
1=
1<
1;
1:
19
18
17
16
15
14
13
12
11
10
1/
1.
1-
1,
1+
1*
1)
1(
b11111111111111111111111111111111 6!
b11 ;!
1#
0%
0F
0E
0D
0C
0B
0A
0@
0?
0>
0=
0<
0;
0:
09
08
07
06
05
04
03
02
01
00
0/
0.
0-
0,
0+
0*
0)
0(
b1 ;!
17!
b1 6!
#600000
0!
#605000
1!
b1 :!
03!
0L
05!
07!
0&
0'
0#
0G
b0 6!
#610000
0!
#615000
1!
b0 I
#620000
0!
#625000
1!
13!
1L
b10 ;!
#630000
0!
#635000
1!
b10 :!
b1 I
15!
1&
1'
#640000
0!
#645000
1!
1%
1G
1F
1E
1D
1C
1B
1A
1@
1?
1>
1=
1<
1;
1:
19
18
17
16
15
14
13
12
11
10
1/
1.
1-
1,
1+
1*
1)
1(
b11111111111111111111111111111111 6!
b11 ;!
1#
0%
0F
0E
0D
0C
0B
0A
0@
0?
0>
0=
0<
0;
0:
09
08
07
06
05
04
03
02
01
00
0/
0.
0-
0,
0+
0*
0)
0(
b1 ;!
17!
b1 6!
#650000
0!
#655000
1!
b1 :!
03!
0L
05!
07!
0&
0'
0#
0G
b0 6!
#660000
0!
#665000
1!
b0 I
#670000
0!
#675000
1!
13!
1L
b10 ;!
#680000
0!
#685000
1!
b10 :!
b1 I
15!
1&
1'
#690000
0!
#695000
1!
1%
1G
1F
1E
1D
1C
1B
1A
1@
1?
1>
1=
1<
1;
1:
19
18
17
16
15
14
13
12
11
10
1/
1.
1-
1,
1+
1*
1)
1(
b11111111111111111111111111111111 6!
b11 ;!
1#
0%
0F
0E
0D
0C
0B
0A
0@
0?
0>
0=
0<
0;
0:
09
08
07
06
05
04
03
02
01
00
0/
0.
0-
0,
0+
0*
0)
0(
b1 ;!
17!
b1 6!
#700000
0!
#705000
1!
b1 :!
03!
0L
05!
07!
0&
0'
0#
0G
b0 6!
#710000
0!
#715000
1!
b0 I
#720000
0!
#725000
1!
13!
1L
b10 ;!
#730000
0!
#735000
1!
b10 :!
b1 I
15!
1&
1'
#740000
0!
#745000
1!
1%
1G
1F
1E
1D
1C
1B
1A
1@
1?
1>
1=
1<
1;
1:
19
18
17
16
15
14
13
12
11
10
1/
1.
1-
1,
1+
1*
1)
1(
b11111111111111111111111111111111 6!
b11 ;!
1#
0%
0F
0E
0D
0C
0B
0A
0@
0?
0>
0=
0<
0;
0:
09
08
07
06
05
04
03
02
01
00
0/
0.
0-
0,
0+
0*
0)
0(
b1 ;!
17!
b1 6!
#750000
0!
#755000
1!
b1 :!
03!
0L
05!
07!
0&
0'
0#
0G
b0 6!
#760000
0!
#765000
1!
b0 I
#770000
0!
#775000
1!
13!
1L
b10 ;!
#780000
0!
#785000
1!
b10 :!
b1 I
15!
1&
1'
#790000
0!
#795000
1!
1%
1G
1F
1E
1D
1C
1B
1A
1@
1?
1>
1=
1<
1;
1:
19
18
17
16
15
14
13
12
11
10
1/
1.
1-
1,
1+
1*
1)
1(
b11111111111111111111111111111111 6!
b11 ;!
1#
0%
0F
0E
0D
0C
0B
0A
0@
0?
0>
0=
0<
0;
0:
09
08
07
06
05
04
03
02
01
00
0/
0.
0-
0,
0+
0*
0)
0(
b1 ;!
17!
b1 6!
#800000
0!
#805000
1!
b1 :!
03!
0L
05!
07!
0&
0'
0#
0G
b0 6!
#810000
0!
#815000
1!
b0 I
#820000
0!
#825000
1!
13!
1L
b10 ;!
#830000
0!
#835000
1!
b10 :!
b1 I
15!
1&
1'
#840000
0!
#845000
1!
1%
1G
1F
1E
1D
1C
1B
1A
1@
1?
1>
1=
1<
1;
1:
19
18
17
16
15
14
13
12
11
10
1/
1.
1-
1,
1+
1*
1)
1(
b11111111111111111111111111111111 6!
b11 ;!
1#
0%
0G
0F
0E
0D
0C
0B
0A
0@
0?
0>
0=
0<
0;
0:
09
08
07
06
05
04
03
02
01
00
0/
0.
0-
0,
0+
0*
0)
0(
b1 ;!
17!
b0 6!
#850000
0!
#855000
1!
b1 :!
03!
0L
05!
07!
0&
0'
0#
#860000
0!
#865000
1!
b0 I
#870000
0!
#875000
1!
13!
12!
11!
10!
0i
1L
b10 ;!
#880000
0!
#885000
1!
b10 :!
b100100 J
b1111 I
15!
1&
1'
#890000
0!
#895000
1!
1%
1G
1F
1E
1D
1C
1B
1A
1@
1?
1>
1=
1<
1;
1:
19
18
17
16
15
14
13
12
11
10
1/
1.
1-
1,
1+
1*
1)
1(
b11111111111111111111111111111111 6!
b11 ;!
1#
0%
0G
0E
0D
0B
0?
0>
0<
0:
07
06
03
0-
0,
0*
0)
0(
b1 ;!
17!
b10011111011001101010011010010 6!
#900000
0!
#905000
1!
b1 :!
03!
02!
01!
00!
0L
05!
07!
0&
0'
0#
0F
0C
0A
0@
0=
0;
09
08
05
04
02
01
00
0/
0.
0+
b0 6!
#910000
0!
#915000
1!
b0 I
#920000
0!
#925000
1!
13!
12!
11!
10!
0k
1j
1L
b10 ;!
#930000
0!
#935000
1!
b10 :!
b101000 J
b1111 I
15!
1&
1'
#940000
0!
#945000
1!
1%
1G
1F
1E
1D
1C
1B
1A
1@
1?
1>
1=
1<
1;
1:
19
18
17
16
15
14
13
12
11
10
1/
1.
1-
1,
1+
1*
1)
1(
b11111111111111111111111111111111 6!
b11 ;!
1#
0%
0G
0F
0C
0>
09
08
07
06
05
04
02
01
00
0/
0-
0+
0*
0)
b1 ;!
17!
b10001010000100000011110111101100 6!
#950000
0!
#955000
1!
b1 :!
03!
02!
01!
00!
0L
05!
07!
0&
0'
0#
0E
0D
0B
0A
0@
0?
0=
0<
0;
0:
03
0.
0,
0(
b0 6!
#960000
0!
#965000
1!
b0 I
#970000
0!
#975000
1!
13!
12!
11!
10!
1k
1L
b10 ;!
#980000
0!
#985000
1!
b10 :!
b101100 J
b1111 I
15!
1&
1'
#990000
0!
#995000
1!
1%
1G
1F
1E
1D
1C
1B
1A
1@
1?
1>
1=
1<
1;
1:
19
18
17
16
15
14
13
12
11
10
1/
1.
1-
1,
1+
1*
1)
1(
b11111111111111111111111111111111 6!
b11 ;!
1#
0%
0G
0@
09
08
04
03
02
01
00
0-
0,
0+
0)
0(
b1 ;!
17!
b100011000001110011111101111110 6!
#1000000
0!
#1005000
1!
b1 :!
03!
02!
01!
00!
0L
05!
07!
0&
0'
0#
0F
0E
0D
0C
0B
0A
0?
0>
0=
0<
0;
0:
07
06
05
0/
0.
0*
b0 6!
#1010000
0!
#1015000
1!
b0 I
#1020000
0!
#1025000
1!
13!
12!
11!
10!
0k
0j
1i
1L
b10 ;!
#1030000
0!
#1035000
1!
b10 :!
b110000 J
b1111 I
15!
1&
1'
#1040000
0!
#1045000
1!
1%
1G
1F
1E
1D
1C
1B
1A
1@
1?
1>
1=
1<
1;
1:
19
18
17
16
15
14
13
12
11
10
1/
1.
1-
1,
1+
1*
1)
1(
b11111111111111111111111111111111 6!
b11 ;!
1#
0%
0E
0D
0C
0B
0A
0?
0=
0;
09
05
04
03
02
00
0/
0.
0,
0*
0(
b1 ;!
17!
b1010100010000111010101010000011 6!
#1050000
0!
#1055000
1!
b1 :!
03!
02!
01!
00!
0L
05!
07!
0&
0'
0#
0G
0F
0@
0>
0<
0:
08
07
06
01
0-
0+
0)
b0 6!
#1060000
0!
#1065000
1!
b0 I
#1070000
0!
#1075000
1!
13!
0/!
1.!
1+!
1)!
1(!
0i
1g
1M
1L
b10 ;!
#1080000
0!
#1085000
1!
b10 :!
b11010010 K
b1100000 J
b1 I
1H
15!
1&
1'
#1090000
0!
#1095000
1!
1%
b11 ;!
#1100000
0!
#1105000
1!
b11 :!
05!
0'
#1110000
0!
#1115000
1!
#1120000
0!
#1125000
1!
#1130000
0!
#1135000
1!
#1140000
0!
#1145000
1!
#1150000
0!
#1155000
1!
#1160000
0!
#1165000
1!
#1170000
0!
#1175000
1!
1#
0%
b1 ;!
17!
0M
03!
0L
#1180000
0!
#1185000
1!
b1 :!
b0 K
b100000 J
b0 I
0H
0#
07!
0&
#1190000
0!
#1195000
1!
b11010010 K
b1100000 J
1M
13!
0.!
1-!
1L
b10 ;!
#1200000
0!
#1205000
1!
b10 :!
b11010100 K
b1 I
1H
15!
1&
1'
#1210000
0!
#1215000
1!
1%
b11 ;!
#1220000
0!
#1225000
1!
b11 :!
05!
0'
#1230000
0!
#1235000
1!
#1240000
0!
#1245000
1!
#1250000
0!
#1255000
1!
#1260000
0!
#1265000
1!
#1270000
0!
#1275000
1!
#1280000
0!
#1285000
1!
#1290000
0!
#1295000
1!
1#
0%
b1 ;!
17!
0M
03!
0L
#1300000
0!
#1305000
1!
b1 :!
b0 K
b100000 J
b0 I
0H
0#
07!
0&
#1310000
0!
#1315000
1!
b11010100 K
b1100000 J
1M
13!
1,!
0+!
1*!
1L
b10 ;!
#1320000
0!
#1325000
1!
b10 :!
b11101100 K
b1 I
1H
15!
1&
1'
#1330000
0!
#1335000
1!
1%
b11 ;!
#1340000
0!
#1345000
1!
b11 :!
05!
0'
#1350000
0!
#1355000
1!
#1360000
0!
#1365000
1!
#1370000
0!
#1375000
1!
#1380000
0!
#1385000
1!
#1390000
0!
#1395000
1!
#1400000
0!
#1405000
1!
#1410000
0!
#1415000
1!
1#
0%
b1 ;!
17!
0M
03!
0L
#1420000
0!
#1425000
1!
b1 :!
b0 K
b100000 J
b0 I
0H
0#
07!
0&
#1430000
0!
#1435000
1!
b11101100 K
b1100000 J
1M
13!
1/!
1.!
0-!
0,!
1+!
0*!
0)!
0(!
1L
b10 ;!
#1440000
0!
#1445000
1!
b10 :!
b10011 K
b1 I
1H
15!
1&
1'
#1450000
0!
#1455000
1!
1%
b11 ;!
#1460000
0!
#1465000
1!
b11 :!
05!
0'
#1470000
0!
#1475000
1!
#1480000
0!
#1485000
1!
#1490000
0!
#1495000
1!
#1500000
0!
#1505000
1!
#1510000
0!
#1515000
1!
#1520000
0!
#1525000
1!
#1530000
0!
#1535000
1!
1#
0%
b1 ;!
17!
0M
03!
0L
#1540000
0!
#1545000
1!
b1 :!
b0 K
b100000 J
b0 I
0H
0#
07!
0&
#1550000
0!
#1555000
1!
b10011 K
b1100000 J
1M
13!
0/!
0.!
1-!
1,!
0+!
1*!
1)!
1(!
1L
b10 ;!
#1560000
0!
#1565000
1!
b10 :!
b11101100 K
b1 I
1H
15!
1&
1'
#1570000
0!
#1575000
1!
1%
b11 ;!
#1580000
0!
#1585000
1!
b11 :!
05!
0'
#1590000
0!
#1595000
1!
#1600000
0!
#1605000
1!
#1610000
0!
#1615000
1!
#1620000
0!
#1625000
1!
#1630000
0!
#1635000
1!
#1640000
0!
#1645000
1!
#1650000
0!
#1655000
1!
1#
0%
b1 ;!
17!
0M
03!
0L
#1660000
0!
#1665000
1!
b1 :!
b0 K
b100000 J
b0 I
0H
0#
07!
0&
#1670000
0!
#1675000
1!
b11101100 K
b1100000 J
1M
13!
1/!
1+!
0)!
0(!
1L
b10 ;!
#1680000
0!
#1685000
1!
b10 :!
b111101 K
b1 I
1H
15!
1&
1'
#1690000
0!
#1695000
1!
1%
b11 ;!
#1700000
0!
#1705000
1!
b11 :!
05!
0'
#1710000
0!
#1715000
1!
#1720000
0!
#1725000
1!
#1730000
0!
#1735000
1!
#1740000
0!
#1745000
1!
#1750000
0!
#1755000
1!
#1760000
0!
#1765000
1!
#1770000
0!
#1775000
1!
1#
0%
b1 ;!
17!
0M
03!
0L
#1780000
0!
#1785000
1!
b1 :!
b0 K
b100000 J
b0 I
0H
0#
07!
0&
#1790000
0!
#1795000
1!
b111101 K
b1100000 J
1M
13!
0/!
0-!
0,!
0*!
1L
b10 ;!
#1800000
0!
#1805000
1!
b10 :!
b10000 K
b1 I
1H
15!
1&
1'
#1810000
0!
#1815000
1!
1%
b11 ;!
#1820000
0!
#1825000
1!
b11 :!
05!
0'
#1830000
0!
#1835000
1!
#1840000
0!
#1845000
1!
#1850000
0!
#1855000
1!
#1860000
0!
#1865000
1!
#1870000
0!
#1875000
1!
#1880000
0!
#1885000
1!
#1890000
0!
#1895000
1!
1#
0%
b1 ;!
17!
0M
03!
0L
#1900000
0!
#1905000
1!
b1 :!
b0 K
b100000 J
b0 I
0H
0#
07!
0&
#1910000
0!
#1915000
1!
b10000 K
b1100000 J
1M
13!
1.!
1,!
0+!
1(!
1L
b10 ;!
#1920000
0!
#1925000
1!
b10 :!
b10001010 K
b1 I
1H
15!
1&
1'
#1930000
0!
#1935000
1!
1%
b11 ;!
#1940000
0!
#1945000
1!
b11 :!
05!
0'
#1950000
0!
#1955000
1!
#1960000
0!
#1965000
1!
#1970000
0!
#1975000
1!
#1980000
0!
#1985000
1!
#1990000
0!
#1995000
1!
#2000000
0!
#2005000
1!
#2010000
0!
#2015000
1!
1#
0%
b1 ;!
17!
0M
03!
0L
#2020000
0!
#2025000
1!
b1 :!
b0 K
b100000 J
b0 I
0H
0#
07!
0&
#2030000
0!
