examples/fsmSVT/fsm.vcd
$date
	Mon Feb 21 18:33:43 2022
$end
$version
	ModelSim Version 2019.4
$end
$timescale
	1ns
$end

$scope module tbench_top $end
$var reg 1 ! clk $end
$var reg 1 " rst $end

$scope module t1 $end
$upscope $end

$scope module DUT $end
$var reg 2 # state [1:0] $end
$upscope $end

$scope module intf $end
$var wire 1 $ clk $end
$var wire 1 % rst $end
$var reg 1 & a $end
$var reg 1 ' out1 $end
$var reg 1 ( out2 $end
$var reg 1 ) out3 $end

$upscope $end
$upscope $end
$upscope $end
$enddefinitions $end
#0
$dumpvars
0!
1"
x&
0'
0(
0)
b0 #
1%
0$
$end
#5
1!
0"
1$
0%
#10
0!
0$
1&
#15
1!
1$
b1 #
1'
#20
0!
0$
#25
1!
1$
b10 #
0'
1(
#30
0!
0$
0&
#35
1!
1$
b0 #
0(
#40
0!
0$
#45
1!
1$
#50
0!
0$
1&
#55
1!
1$
b1 #
1'
#60
0!
0$
#65
1!
1$
b10 #
0'
1(
#70
0!
0$
0&
#75
1!
1$
b0 #
0(
#80
0!
0$
1&
#85
1!
1$
b1 #
1'
#90
0!
0$
0&
#95
1!
1$
b0 #
0'
#100
0!
0$
1&
#105
1!
1$
b1 #
1'
#110
0!
0$
#115
1!
1$
b10 #
0'
1(
#120
0!
0$
#125
1!
1$
b11 #
0(
1)
#130
0!
0$
#135
1!
1$
#140
0!
0$
0&
#145
1!
1$
b0 #
0)
#150
0!
0$
#155
1!
1$
#160
0!
0$
1&
#165
1!
1$
b1 #
1'
#170
0!
0$
0&
#175
1!
1$
b0 #
0'
#180
0!
0$
1&
#185
1!
1$
b1 #
1'
#190
0!
0$
#195
1!
1$
b10 #
0'
1(
#200
0!
0$
0&
#205
1!
1$
b0 #
0(
#210
0!
0$
1&
#215
1!
1$
b1 #
1'
#220
0!
0$
#225
1!
1$
b10 #
0'
1(
#230
0!
0$
0&
#235
1!
1$
b0 #
0(
#240
0!
0$
#245
1!
1$
#250
0!
0$
1&
#255
1!
1$
b1 #
1'
#260
0!
0$
#265
1!
1$
b10 #
0'
1(
#270
0!
0$
#275
1!
1$
b11 #
0(
1)
#280
0!
0$
#285
1!
1$
#290
0!
0$
#295
1!
1$
#300
0!
0$
#305
1!
1$
#310
0!
0$
#315
1!
1$
#320
0!
0$
#325
1!
1$
#330
0!
0$
0&
#335
1!
1$
b0 #
0)
#340
0!
0$
#345
1!
1$
#350
0!
0$
#355
1!
1$
#360
0!
0$
#365
1!
1$
#370
0!
0$
#375
1!
1$
#380
0!
0$
#385
1!
1$
#390
0!
0$
#395
1!
1$
#400
0!
0$
1&
#405
1!
1$
b1 #
1'
#410
0!
0$
0&
#415
1!
1$
b0 #
0'
#420
0!
0$
#425
1!
1$
#430
0!
0$
1&
#435
1!
1$
b1 #
1'
#440
0!
0$
0&
#445
1!
1$
b0 #
0'
#450
0!
0$
1&
#455
1!
1$
b1 #
1'
#460
0!
0$
#465
1!
1$
b10 #
0'
1(
#470
0!
0$
#475
1!
1$
b11 #
0(
1)
#480
0!
0$
0&
#485
1!
1$
b0 #
0)
#490
0!
0$
1&
#495
1!
1$
b1 #
1'
#500
0!
0$
#505
1!
1$
b10 #
0'
1(
#510
0!
0$
#515
1!
1$
b11 #
0(
1)
#520
0!
0$
0&
#525
1!
1$
b0 #
0)
#530
0!
0$
1&
#535
1!
1$
b1 #
1'
#540
0!
0$
#545
1!
1$
b10 #
0'
1(
#550
0!
0$
#555
1!
1$
b11 #
0(
1)
#560
0!
0$
0&
#565
1!
1$
b0 #
0)
#570
0!
0$
1&
#575
1!
1$
b1 #
1'
#580
0!
0$
#585
1!
1$
b10 #
0'
1(
#590
0!
0$
#595
1!
1$
b11 #
0(
1)
#600
0!
0$
0&
#605
1!
1$
b0 #
0)
#610
0!
0$
#615
1!
1$
#620
0!
0$
1&
#625
1!
1$
b1 #
1'
#630
0!
0$
#635
1!
1$
b10 #
0'
1(
#640
0!
0$
#645
1!
1$
b11 #
0(
1)
#650
0!
0$
0&
#655
1!
1$
b0 #
0)
#660
0!
0$
1&
#665
1!
1$
b1 #
1'
#670
0!
0$
#675
1!
1$
b10 #
0'
1(
#680
0!
0$
0&
#685
1!
1$
b0 #
0(
#690
0!
0$
1&
#695
1!
1$
b1 #
1'
#700
0!
0$
#705
1!
1$
b10 #
0'
1(
#710
0!
0$
0&
#715
1!
1$
b0 #
0(
#720
0!
0$
#725
1!
1$
#730
0!
0$
#735
1!
1$
#740
0!
0$
1&
#745
1!
1$
b1 #
1'
#750
0!
0$
0&
#755
1!
1$
b0 #
0'
#760
0!
0$
1&
#765
1!
1$
b1 #
1'
#770
0!
0$
0&
#775
1!
1$
b0 #
0'
#780
0!
0$
1&
#785
1!
1$
b1 #
1'
#790
0!
0$
0&
#795
1!
1$
b0 #
0'
#800
0!
0$
1&
#805
1!
1$
b1 #
1'
#810
0!
0$
#815
1!
1$
b10 #
0'
1(
#820
0!
0$
#825
1!
1$
b11 #
0(
1)
#830
0!
0$
0&
#835
1!
1$
b0 #
0)
#840
0!
0$
1&
#845
1!
1$
b1 #
1'
#850
0!
0$
#855
1!
1$
b10 #
0'
1(
#860
0!
0$
#865
1!
1$
b11 #
0(
1)
#870
0!
0$
0&
#875
1!
1$
b0 #
0)
#880
0!
0$
1&
#885
1!
1$
b1 #
1'
#890
0!
0$
#895
1!
1$
b10 #
0'
1(
#900
0!
0$
#905
1!
1$
b11 #
0(
1)
#910
0!
0$
0&
#915
1!
1$
b0 #
0)
#920
0!
0$
1&
#925
1!
1$
b1 #
1'
#930
0!
0$
0&
#935
1!
1$
b0 #
0'
#940
0!
0$
1&
#945
1!
1$
b1 #
1'
#950
0!
0$
#955
1!
1$
b10 #
0'
1(
#960
0!
0$
#965
1!
1$
b11 #
0(
1)
#970
0!
0$
0&
#975
1!
1$
b0 #
0)
#980
0!
0$
#985
1!
1$
#990
0!
0$
1&
#995
1!
1$
b1 #
1'
